{
  "name": "Steerpath",
  "version": "3.0.0-alpha44",
  "summary": "Steerpath 3.0.0 alpha - indoor positioning and navigation SDK",
  "description": "With Steerpath, we set out to do the impossible: engineer a full-featured indoor navigation system into the easiest and most powerful package ever. That meant reimagining every element to make it not only to have a simple API and full offline capabilities but also better throughout. The result is more than just a new SDK. It’s the future of personal wayfinding.",
  "homepage": "https://www.steerpath.com",
  "license": {
    "type": "Copyright",
    "text": "Copyright 2016 Nimble Devices"
  },
  "authors": {
    "Nimble Devices": "support@nimbledevices.com"
  },
  "platforms": {
    "ios": "8.0"
  },
  "vendored_libraries": [
    "Libraries/libSteerpath.a"
  ],
  "public_header_files": [
    "Headers/Core/Public/*.h",
    "Headers/ModuleHeaders/*.h"
  ],
  "preserve_paths": [
    "Headers/module.modulemap"
  ],
  "source_files": [
    "Headers/Core/Public/*.h",
    "Headers/ModuleHeaders/*.h"
  ],
  "user_target_xcconfig": {
    "HEADER_SEARCH_PATHS": "$(inherited) ${PODS_ROOT}/Steerpath/Headers"
  },
  "source": {
    "http": "https://s3-eu-west-1.amazonaws.com/nd-releases/misc/3.0.0-alpha/steerpath-ios-sdk-3.0.0a.zip",
    "flatten": true
  },
  "frameworks": [
    "CoreLocation",
    "CoreBluetooth",
    "CoreMotion"
  ],
  "dependencies": {
    "Mapbox-iOS-SDK": [
      "~>3.3.4"
    ]
  },
  "requires_arc": true
}
